…
ggplot(ages, aes(x = age)) +
  geom_histogram(binwidth = 10, na.rm = TRUE, colour = "white", fill = colourGrey) +
  upright_style() +
  baseLine_style() +
  labs(title = "Age of riders",
       subtitle = "5 to 260 years old")
```

>
> graph here
>

```R
arrange(ages, age)
## # A tibble: 3,818,004 × 2
##    birth_year   age
##         <dbl> <dbl>
##  1       2014     5
##  2       2014     5
##  3       2014     5
##  4       2014     5
##  5       2014     5
##  6       2003    16
##  7       2003    16
##  8       2003    16
##  9       2003    16
## 10       2003    16
## # … with 3,817,994 more rows

arrange(ages, -age)
## # A tibble: 3,818,004 × 2
##    birth_year   age
##         <dbl> <dbl>
##  1       1759   260
##  2       1790   229
##  3       1888   131
##  4       1888   131
##  5       1888   131
##  6       1888   131
##  7       1888   131
##  8       1888   131
##  9       1888   131
## 10       1888   131
## # … with 3,817,994 more rows
…
